<?xml version="1.0" standalone="no"?>
<!DOCTYPE svg PUBLIC "-//W3C//DTD SVG 1.1//EN" "http://www.w3.org/Graphics/SVG/1.1/DTD/svg11.dtd">
<svg xmlns="http://www.w3.org/2000/svg">
<metadata>Copyright (C) 2024 by original authors @ fontello.com</metadata>
<defs>
<font id="zapete" horiz-adv-x="1000" >
<font-face font-family="zapete" font-weight="400" font-stretch="normal" units-per-em="1000" ascent="850" descent="-150" />
<missing-glyph horiz-adv-x="1000" />
<glyph glyph-name="play" unicode="&#xe800;" d="M0-25l0 750 625-375z" horiz-adv-x="625" />

<glyph glyph-name="pause" unicode="&#xe801;" d="M0-25l0 750 313 0 0-750-313 0z m438 0l0 750 312 0 0-750-312 0z" horiz-adv-x="750" />

<glyph glyph-name="rewind1" unicode="&#xe802;" d="M0 350l344 344 0-313 312 313 0-688-312 313 0-313z" horiz-adv-x="656" />

<glyph glyph-name="rewind3" unicode="&#xe803;" d="M0-25l0 750 125 0 0-344 313 313 0-313 312 313 0-688-312 313 0-313-313 313 0-344-125 0z" horiz-adv-x="750" />

<glyph glyph-name="forward3" unicode="&#xe804;" d="M0 6l0 688 313-313 0 313 312-313 0 344 125 0 0-750-125 0 0 344-312-313 0 313z" horiz-adv-x="750" />

<glyph glyph-name="forward1" unicode="&#xe805;" d="M0 6l0 688 313-313 0 313 343-344-343-344 0 313z" horiz-adv-x="656" />

<glyph glyph-name="pl_prev" unicode="&#xe806;" d="M0-25l0 750 125 0 0-344 313 313 0-688-313 313 0-344-125 0z" horiz-adv-x="437" />

<glyph glyph-name="pl_next" unicode="&#xe807;" d="M0 6l0 688 313-313 0 344 125 0 0-750-125 0 0 344z" horiz-adv-x="437" />
</font>
</defs>
</svg>
